[0308/180539.983:ERROR:process_info.cc(608)] range at 0xff1df000, size 0x230 fully unreadable
[0308/180539.991:ERROR:process_info.cc(608)] range at 0xff1de000, size 0xf84 fully unreadable
[0308/180539.992:ERROR:process_info.cc(608)] range at 0xff1db000, size 0xf84 fully unreadable
[0308/180539.992:ERROR:process_info.cc(608)] range at 0xff1d8000, size 0xf84 fully unreadable
[0308/180539.992:ERROR:process_info.cc(608)] range at 0xff0af000, size 0xf84 fully unreadable
[0308/180539.992:ERROR:process_info.cc(608)] range at 0xff0ac000, size 0xf84 fully unreadable
[0308/180540.492:ERROR:process_info.cc(608)] range at 0xff56b000, size 0x230 fully unreadable
[0308/180540.497:ERROR:process_info.cc(608)] range at 0xff56e000, size 0xf84 fully unreadable
[0308/180540.497:ERROR:process_info.cc(608)] range at 0xff56a000, size 0xf84 fully unreadable
[0308/180540.497:ERROR:process_info.cc(608)] range at 0xff567000, size 0xf84 fully unreadable
[0308/180540.497:ERROR:process_info.cc(608)] range at 0xff43f000, size 0xf84 fully unreadable
[0308/180540.497:ERROR:process_info.cc(608)] range at 0xff43c000, size 0xf84 fully unreadable
[0308/180541.399:ERROR:process_info.cc(608)] range at 0xff94f000, size 0x230 fully unreadable
[0308/180541.404:ERROR:process_info.cc(608)] range at 0xff94e000, size 0xf84 fully unreadable
[0308/180541.404:ERROR:process_info.cc(608)] range at 0xff94b000, size 0xf84 fully unreadable
[0308/180541.404:ERROR:process_info.cc(608)] range at 0xff948000, size 0xf84 fully unreadable
[0308/180541.404:ERROR:process_info.cc(608)] range at 0xff81f000, size 0xf84 fully unreadable
[0308/180541.404:ERROR:process_info.cc(608)] range at 0xff81c000, size 0xf84 fully unreadable
